memoryV2/ALU/simulation/qsim/alu.msim.vcd
$comment
	File created using the following command:
		vcd file alu.msim.vcd -direction
$end
$date
	Wed Jan 12 16:07:09 2022
$end
$version
	ModelSim Version 10.1d
$end
$timescale
	1ps
$end
$scope module alu_vlg_vec_tst $end
$var reg 3 ! ALU_Sel [2:0] $end
$var reg 8 " B [7:0] $end
$var reg 8 # Bus1 [7:0] $end
$var wire 1 $ ALU_Result [7] $end
$var wire 1 % ALU_Result [6] $end
$var wire 1 & ALU_Result [5] $end
$var wire 1 ' ALU_Result [4] $end
$var wire 1 ( ALU_Result [3] $end
$var wire 1 ) ALU_Result [2] $end
$var wire 1 * ALU_Result [1] $end
$var wire 1 + ALU_Result [0] $end
$var wire 1 , NZVC [3] $end
$var wire 1 - NZVC [2] $end
$var wire 1 . NZVC [1] $end
$var wire 1 / NZVC [0] $end
$var wire 1 0 sampler $end
$scope module i1 $end
$var wire 1 1 gnd $end
$var wire 1 2 vcc $end
$var wire 1 3 unknown $end
$var tri1 1 4 devclrn $end
$var tri1 1 5 devpor $end
$var tri1 1 6 devoe $end
$var wire 1 7 Add0~0_combout $end
$var wire 1 8 Add0~1 $end
$var wire 1 9 Add0~2_combout $end
$var wire 1 : Add0~3 $end
$var wire 1 ; Add0~4_combout $end
$var wire 1 < Add0~5 $end
$var wire 1 = Add0~6_combout $end
$var wire 1 > Add0~7 $end
$var wire 1 ? Add0~8_combout $end
$var wire 1 @ Add0~9 $end
$var wire 1 A Add0~10_combout $end
$var wire 1 B Add0~11 $end
$var wire 1 C Add0~12_combout $end
$var wire 1 D Add0~13 $end
$var wire 1 E Add0~14_combout $end
$var wire 1 F Add1~4_combout $end
$var wire 1 G Add0|auto_generated|_~0_combout $end
$var wire 1 H Equal0~0_combout $end
$var wire 1 I Add0|auto_generated|_~1_combout $end
$var wire 1 J Add0|auto_generated|_~2_combout $end
$var wire 1 K Add0|auto_generated|_~3_combout $end
$var wire 1 L Add0|auto_generated|_~4_combout $end
$var wire 1 M Add0|auto_generated|_~5_combout $end
$var wire 1 N Add0|auto_generated|_~6_combout $end
$var wire 1 O Add0|auto_generated|_~7_combout $end
$var wire 1 P NZVC[1]~0_combout $end
$var wire 1 Q NZVC[2]~3_combout $end
$var wire 1 R NZVC[2]~4_combout $end
$var wire 1 S NZVC[2]~5_combout $end
$var wire 1 T ALU_Result[0]~output_o $end
$var wire 1 U ALU_Result[1]~output_o $end
$var wire 1 V ALU_Result[2]~output_o $end
$var wire 1 W ALU_Result[3]~output_o $end
$var wire 1 X ALU_Result[4]~output_o $end
$var wire 1 Y ALU_Result[5]~output_o $end
$var wire 1 Z ALU_Result[6]~output_o $end
$var wire 1 [ ALU_Result[7]~output_o $end
$var wire 1 \ NZVC[0]~output_o $end
$var wire 1 ] NZVC[1]~output_o $end
$var wire 1 ^ NZVC[2]~output_o $end
$var wire 1 _ NZVC[3]~output_o $end
$var wire 1 ` B[0]~input_o $end
$var wire 1 a Add0|auto_generated|result_int[0]~1_cout $end
$var wire 1 b Add0|auto_generated|result_int[1]~2_combout $end
$var wire 1 c ALU_Sel[1]~input_o $end
$var wire 1 d ALU_Sel[2]~input_o $end
$var wire 1 e Equal0~1_combout $end
$var wire 1 f ALU_Result[0]$latch~combout $end
$var wire 1 g B[1]~input_o $end
$var wire 1 h Add0|auto_generated|result_int[1]~3 $end
$var wire 1 i Add0|auto_generated|result_int[2]~4_combout $end
$var wire 1 j ALU_Result[1]$latch~combout $end
$var wire 1 k B[2]~input_o $end
$var wire 1 l Add0|auto_generated|result_int[2]~5 $end
$var wire 1 m Add0|auto_generated|result_int[3]~6_combout $end
$var wire 1 n ALU_Result[2]$latch~combout $end
$var wire 1 o B[3]~input_o $end
$var wire 1 p Add0|auto_generated|result_int[3]~7 $end
$var wire 1 q Add0|auto_generated|result_int[4]~8_combout $end
$var wire 1 r ALU_Result[3]$latch~combout $end
$var wire 1 s B[4]~input_o $end
$var wire 1 t Add0|auto_generated|result_int[4]~9 $end
$var wire 1 u Add0|auto_generated|result_int[5]~10_combout $end
$var wire 1 v ALU_Result[4]$latch~combout $end
$var wire 1 w B[5]~input_o $end
$var wire 1 x Add0|auto_generated|result_int[5]~11 $end
$var wire 1 y Add0|auto_generated|result_int[6]~12_combout $end
$var wire 1 z ALU_Result[5]$latch~combout $end
$var wire 1 { B[6]~input_o $end
$var wire 1 | Add0|auto_generated|result_int[6]~13 $end
$var wire 1 } Add0|auto_generated|result_int[7]~14_combout $end
$var wire 1 ~ ALU_Result[6]$latch~combout $end
$var wire 1 !! B[7]~input_o $end
$var wire 1 "! Add0|auto_generated|result_int[7]~15 $end
$var wire 1 #! Add0|auto_generated|result_int[8]~16_combout $end
$var wire 1 $! ALU_Result[7]$latch~combout $end
$var wire 1 %! Add0|auto_generated|result_int[8]~17 $end
$var wire 1 &! Add0|auto_generated|result_int[9]~18_combout $end
$var wire 1 '! NZVC[0]$latch~combout $end
$var wire 1 (! ALU_Sel[0]~input_o $end
$var wire 1 )! Bus1[7]~input_o $end
$var wire 1 *! Bus1[6]~input_o $end
$var wire 1 +! Bus1[5]~input_o $end
$var wire 1 ,! Bus1[4]~input_o $end
$var wire 1 -! Bus1[3]~input_o $end
$var wire 1 .! Bus1[2]~input_o $end
$var wire 1 /! Bus1[1]~input_o $end
$var wire 1 0! Bus1[0]~input_o $end
$var wire 1 1! LessThan0~1_cout $end
$var wire 1 2! LessThan0~3_cout $end
$var wire 1 3! LessThan0~5_cout $end
$var wire 1 4! LessThan0~7_cout $end
$var wire 1 5! LessThan0~9_cout $end
$var wire 1 6! LessThan0~11_cout $end
$var wire 1 7! LessThan0~13_cout $end
$var wire 1 8! LessThan0~14_combout $end
$var wire 1 9! NZVC[1]~1_combout $end
$var wire 1 :! NZVC[1]~2_combout $end
$var wire 1 ;! NZVC[1]$latch~combout $end
$var wire 1 <! Add1~0_combout $end
$var wire 1 =! Add1~1 $end
$var wire 1 >! Add1~2_combout $end
$var wire 1 ?! Add1~3 $end
$var wire 1 @! Add1~5 $end
$var wire 1 A! Add1~7 $end
$var wire 1 B! Add1~9 $end
$var wire 1 C! Add1~11 $end
$var wire 1 D! Add1~13 $end
$var wire 1 E! Add1~14_combout $end
$var wire 1 F! NZVC[2]~6_combout $end
$var wire 1 G! Add1~6_combout $end
$var wire 1 H! Add1~8_combout $end
$var wire 1 I! Add1~10_combout $end
$var wire 1 J! NZVC[2]~7_combout $end
$var wire 1 K! Add1~12_combout $end
$var wire 1 L! NZVC[2]~8_combout $end
$var wire 1 M! NZVC[2]$latch~combout $end
$upscope $end
$upscope $end
$enddefinitions $end
#0
$dumpvars
b0 !
b1111010 "
b1010010 #
0+
0*
1)
1(
0'
0&
1%
1$
0/
1.
0-
1,
x0
01
12
x3
14
15
16
07
08
09
0:
1;
0<
1=
1>
0?
1@
0A
0B
1C
1D
1E
0F
1G
1H
0I
1J
1K
0L
1M
0N
1O
1P
0Q
0R
0S
0T
0U
1V
1W
0X
0Y
1Z
1[
0\
1]
0^
1_
0`
0a
0b
0c
0d
1e
0f
1g
1h
0i
0j
0k
1l
1m
1n
1o
1p
1q
1r
1s
0t
0u
0v
1w
0x
0y
0z
1{
1|
1}
1~
0!!
0"!
1#!
1$!
0%!
0&!
0'!
0(!
0)!
1*!
0+!
1,!
0-!
0.!
1/!
00!
01!
12!
03!
14!
05!
16!
07!
08!
09!
1:!
1;!
0<!
1=!
0>!
0?!
1@!
0A!
1B!
0C!
1D!
0E!
0F!
1G!
0H!
1I!
0J!
0K!
0L!
0M!
$end
#80000
b111010 "
b101010 "
0s
0{
00
0B!
1H!
15!
1x
1u
0@
1?
0D!
1K!
17!
0}
0C
0I!
0|
1y
1B
1A
1E!
18!
1v
0~
1"!
1}
0D
1C
1X
0Z
1'
0%
1z
0#!
0E
1Y
1&
1~
1Q
0P
1Z
1%
0$!
0:!
0_
0[
0,
0$
0;!
0]
0.
#160000
b10101010 "
b10101110 "
b10101100 "
b11010010 #
b10010010 #
b10000010 #
b10001010 #
1-!
0,!
0*!
1)!
0g
1k
1!!
10
0G!
0K
0>
0=
1B!
0H!
05!
1L
0?
1D!
0K!
07!
1N
0C
19!
1P
0O
1?!
1>!
02!
0l
1i
1:
19
0p
0m
1F
1<
0;
1#!
1t
1?
1I!
0u
0E!
08!
0}
1:!
1%!
0#!
0F
1p
1m
0<
1;
0Q
1=
1j
0n
1$!
1u
09!
1&!
0q
0=
1U
0V
1_
1[
1*
0)
1,
1$
0v
0~
1;!
0$!
1n
0X
0Z
1]
0_
0[
1V
0'
0%
1.
0,
0$
1)
1v
1'!
0r
1X
1\
0W
1'
1/
0(
#240000
b10101010 #
b101010 #
b1101010 #
b1111010 #
b1110010 #
0-!
1,!
1+!
1*!
0)!
00
1G!
1K
1>
1=
0B!
1H!
15!
0L
1@
0?
0I!
0M
0B
0A
0D!
1K!
17!
0N
1C
1E!
19!
0P
1O
1E
0t
1q
0@
1?
1C!
1I!
06!
0x
0u
1A
1|
0y
1D
0C
0E!
1}
09!
0:!
0%!
1#!
1x
1u
0A
0K!
1y
0"!
0}
0E
19!
0&!
1r
0v
0z
1~
0;!
1$!
0y
1%!
0#!
1W
0X
0Y
1Z
0]
1_
1[
1(
0'
0&
1%
0.
1,
1$
1v
1z
0~
0'!
1&!
1X
1Y
0Z
0\
1'
1&
0%
0/
0z
0$!
0Y
0_
0[
0&
0,
0$
1'!
1\
1/
#320000
b1 !
b1110110 #
b11101100 "
b11111100 "
b1111100 "
b1111110 "
b1010110 #
1g
1s
1{
0!!
1.!
0+!
1(!
10
0?!
0>!
12!
1l
0i
0:
09
1B!
0H!
05!
0x
0u
1@
0?
1K!
1}
1C
1E!
09!
18!
0%!
1#!
1E
13!
0@!
1F
1<
0;
0C!
0I!
16!
1B
1A
1:!
0O
1N
1L
0K
1I
0H
0G
1@!
0F
03!
0p
0m
1;
1I!
1y
0B
0A
0:!
0G!
0>
0=
1D!
0K!
07!
0C
1%!
0#!
0}
1x
1u
1t
0q
0l
1i
1a
1b
0j
0v
1~
1$!
1;!
1G!
1q
1C
1?
0E!
08!
0&!
0y
0x
0u
1p
1m
0h
0b
0U
0X
1Z
1_
1[
1]
0*
0'
1%
1,
1$
1.
0n
1z
0;!
0$!
0~
1v
0r
1j
1f
1F!
1y
0q
1l
0i
0V
1Y
0]
0_
0[
0Z
1X
0W
1U
1T
0)
1&
0.
0,
0$
0%
1'
0(
1*
1+
1r
0'!
0z
0v
1n
0f
0p
0m
1W
0\
0Y
0X
1V
0T
1(
0/
0&
0'
1)
0+
1z
0r
0j
1q
1Y
0W
0U
1&
0(
0*
0n
0V
0)
1r
1W
1(
#400000
b1111111 "
b1010111 #
10!
1`
00
1G
18
1b
0b
19
1f
1T
1+
0f
0T
0+
#480000
b1010101 #
b1111011 "
b1011101 #
b1111010 "
b1011100 #
0`
0k
00!
0/!
1-!
10
1h
1b
08
13!
1p
1m
0@!
1F
0;
0G
1>!
0I
09
0G!
1K
1=
1:
19
04!
0t
1A!
1G!
0h
0b
0F!
1f
1n
0<
1;
15!
1x
1u
0B!
1H!
1i
1T
1V
1+
1)
0f
0=
0y
0I!
0T
0+
1v
1j
1X
1U
1'
1*
0z
0Y
0&
#560000
b1011010 "
b11010 "
b1010 "
b10001010 "
0s
0w
0{
1!!
00
0H!
0u
0?
1C!
1I!
06!
0|
1y
1B
1A
0D!
1K!
17!
1"!
1}
0C
1E!
19!
1#!
0E
0K!
0}
0D
1C
0E!
0#!
09!
1:!
0v
1z
1~
1$!
1E
19!
0:!
0X
1Y
1Z
1_
1[
0'
1&
1%
1,
1$
0~
0$!
1;!
1:!
0Z
0_
0[
1]
0%
0,
0$
1.
0;!
0]
0.
1;!
1]
1.
#640000
b11011100 #
b10011100 #
b10001100 #
b10001000 #
b10001000 "
b10001010 #
b10001100 "
b11001100 "
b11011100 "
b1011100 "
0g
1k
1s
1{
0!!
1/!
0.!
0,!
0*!
1)!
10
1?!
02!
0i
03!
0p
0m
1@!
1B!
05!
1u
1D!
07!
1}
09!
18!
0%!
1#!
1I
0J
0L
0N
1O
0F
14!
1t
0q
0A!
0G!
0C!
0I!
16!
1E!
0:!
19!
1&!
0l
1i
1m
0x
0u
0"!
0}
0#!
0j
0n
1v
1~
1$!
1J!
1u
1H!
1K!
1:!
0m
1|
0y
1#!
0U
0V
1X
1Z
1_
1[
0*
0)
1'
1%
1,
1$
0r
0;!
1'!
1j
1n
0v
0~
0$!
0J!
1}
0W
0]
1\
1U
1V
0X
0Z
0_
0[
0(
0.
1/
1*
1)
0'
0%
0,
0$
1v
1;!
0n
0z
1$!
1X
1]
0V
0Y
1_
1[
1'
1.
0)
0&
1,
1$
1~
1Z
1%
#720000
b10101010 #
b10100010 #
b1111100 "
b100010 #
b1100010 #
b1110010 #
b111100 "
b101100 "
0s
1w
0{
0-!
1,!
1+!
1*!
0)!
00
0B!
15!
0u
1y
0B
0D!
17!
0}
1G!
0K
1>
1=
1L
1M
1N
0E!
09!
08!
0O
0E
1C!
1I!
06!
1D
0C
1E!
18!
1q
0@
1?
1x
1u
0y
1"!
1}
0:!
1%!
0#!
0v
1z
0~
0K!
1E
0A
0|
1y
0%!
1#!
0&!
0X
1Y
0Z
0'
1&
0%
1r
1v
0z
1~
0;!
0$!
0}
1&!
1W
1X
0Y
1Z
0]
0_
0[
1(
1'
0&
1%
0.
0,
0$
1z
1$!
0'!
1Y
1_
1[
0\
1&
1,
1$
0/
0~
1'!
0Z
1\
0%
1/
#800000
b100100 "
b1110110 #
b1110100 #
b10100100 "
b1010100 #
b1011100 #
b10000100 "
0/!
1.!
1-!
0+!
0o
0w
1!!
10
0?!
0>!
12!
0I
09
13!
1J
0@!
1F
1<
0;
1A!
04!
1K
0M
1B
0q
0y
0E!
19!
08!
1%!
0#!
0E
1@!
0F
1F!
03!
1l
0i
1p
1m
0G!
0>
0=
0H!
0t
1q
1y
0D
1C
1:!
0&!
0r
0z
0$!
1G!
0p
0m
0q
1@
0?
0u
1E
0W
0Y
0_
0[
0(
0&
0,
0$
0j
1n
1r
1z
1;!
0'!
1q
1A
1R
0U
1V
1W
1Y
1]
0\
0*
1)
1(
1&
1.
0/
0n
0r
0v
0R
0V
0W
0X
0)
0(
0'
1r
1W
1(
#880000
b10000101 "
b1011101 #
10!
1`
00
1G
18
1b
0b
19
1f
1T
1+
0f
0T
0+
#960000
b10000111 "
b1011111 #
b10000110 "
b1011110 #
00!
1/!
0`
1g
10
0G
08
1I
0:
1h
1b
1i
0h
0b
09
0l
1;
1f
1j
1l
0i
1p
1m
1T
1U
1+
1*
0f
0p
0m
0q
0T
0+
0j
1n
1q
0U
1V
0*
1)
0n
0r
0V
0W
0)
0(
1r
1W
1(
